<svg xmlns="http://www.w3.org/2000/svg" viewBox="0 0 500 500" width='128em' height='128em'>

    <rect width="500" height="500" fill="#333" rx="50" />

    <!-- circle cx="250" cy="250" r="240" fill="#ace5d4" stroke="url(#outline)" stroke-width="20" /-->
    <rect x="25" y="25" width="450" height="212.5" fill="#ace5d4" rx="25" />
    <rect x="25" y="262.5" width="450" height="212.5" fill="#ace5d4" rx="25" />

    <g>
        <line x1="75" y1="81.25" x2="325" y2="81.25" stroke-width="25" stroke="#333" stroke-linecap="round" />
        <line x1="75" y1="131.25" x2="275" y2="131.25" stroke-width="25" stroke="#333" stroke-linecap="round" />
        <line x1="75" y1="181.25" x2="325" y2="181.25" stroke-width="25" stroke="#333" stroke-linecap="round" />

        <line x1="425" y1="81.25" x2="425" y2="181.25" stroke-width="25" stroke="#333" stroke-linecap="round" />

        <line x1="75" y1="318.75" x2="275" y2="318.75" stroke-width="25" stroke="#333" stroke-linecap="round" />
        <line x1="75" y1="368.75" x2="325" y2="368.75" stroke-width="25" stroke="#333" stroke-linecap="round" />
        <line x1="75" y1="418.75" x2="275" y2="418.75" stroke-width="25" stroke="#333" stroke-linecap="round" />

        <line x1="425" y1="318.75" x2="425" y2="418.75" stroke-width="25" stroke="#333" stroke-linecap="round" />
    </g>

</svg>
